mining/a-team/tests/bl_slave_0/bl_slave.vcd
$date
	Wed Apr 17 16:46:26 2019
$end

$version
	Synopsys VCS version N-2017.12_Full64
$end

$timescale
	1ps
$end

$comment Csum: 1 fa8dc244245d0629 $end


$scope module sim1 $end

$scope module p $end

$scope module slave_0 $end

$scope module slave_interface $end
$var reg 1 ! wb_clk $end
$var reg 1 " wb_rst $end
$var reg 1 # wb_cyc $end
$var reg 1 $ wb_stb $end
$var reg 1 % wb_we $end
$var reg 4 & wb_sel [3:0] $end
$var reg 32 ' wb_dat_i [31:0] $end
$var reg 32 ( wb_adr [31:0] $end
$var reg 1 ) wb_ack $end
$var reg 1 * wb_err $end
$var reg 1 + wb_stall $end
$var reg 32 , wb_dat_o [31:0] $end
$var reg 1 - request $end
$var reg 1 . write $end
$var reg 1 / reset $end
$var reg 32 0 address [31:0] $end
$var reg 32 1 data_from_bus [31:0] $end
$var reg 4 2 byte_sel [3:0] $end
$var reg 32 3 data_to_bus [31:0] $end
$var reg 1 4 done $end
$var reg 1 5 err $end
$upscope $end

$upscope $end

$upscope $end

$upscope $end

$enddefinitions $end

#0
$dumpvars
04
05
0-
1/
0)
0!
0#
0*
1"
0+
0$
x%
x.
bxxxxxxxxxxxxxxxxxxxxxxxxxxxxxxxx 0
bxxxx 2
bxxxxxxxxxxxxxxxxxxxxxxxxxxxxxxxx 1
b11111111111111111111111111111111 3
bxxxxxxxxxxxxxxxxxxxxxxxxxxxxxxxx (
bxxxxxxxxxxxxxxxxxxxxxxxxxxxxxxxx '
b00000000000000000000000000000000 ,
bxxxx &
$end
#5000
1!
0.
b0000 2
b00000000000000000000000000000000 0
b00000000000000000000000000000000 1
b00000000000000000000000000000000 '
b00000000000000000000000000000000 (
b0000 &
0%
#10000
0!
#15000
1!
#20000
0!
0"
0/
#25000
1!
#30000
0!
#35000
1!
#40000
0!
#45000
1!
b00000000000000000000000000000001 '
b00000000000000000000000000100000 (
b0001 &
1%
1#
1$
#50000
0!
#55000
1!
1.
b0001 2
b00000000000000000000000000100000 0
b00000000000000000000000000000001 1
b11111111111111111111111111111111 ,
1-
1+
14
1)
0+
#60000
0!
#65000
1!
0-
04
0#
0$
0)
b00000000000000000000000000000000 ,
#70000
0!
#75000
1!
0.
b0000 2
b00000000000000000000000000000000 0
b00000000000000000000000000000000 1
b0000 &
0%
#80000
0!
#85000
1!
b00000000000000000000000000100000 0
b00000000000000000000000000000001 1
b00010001001000110100010101100111 '
b00000000000000000000000000000000 (
b1111 &
1%
1#
1$
#90000
0!
#95000
1!
1.
b1111 2
b00000000000000000000000000000000 0
b00010001001000110100010101100111 1
b11111111111111111111111111111111 ,
1-
1+
14
1)
0+
#100000
0!
#105000
1!
0-
04
0#
0$
0)
b00000000000000000000000000000000 ,
#110000
0!
#115000
1!
0.
b0000 2
b00000000000000000000000000000000 1
b0000 &
0%
#120000
0!
#125000
1!
b00010001001000110100010101100111 1
b10001001101010111100110111101111 '
b00000000000000000000000000000100 (
b1111 &
1%
1#
1$
#130000
0!
#135000
1!
1.
b1111 2
b00000000000000000000000000000100 0
b10001001101010111100110111101111 1
b11111111111111111111111111111111 ,
1-
1+
14
1)
0+
#140000
0!
#145000
1!
0-
04
0#
0$
0)
b00000000000000000000000000000000 ,
#150000
0!
#155000
1!
0.
b0000 2
b00000000000000000000000000000000 0
b00000000000000000000000000000000 1
b0000 &
0%
#160000
0!
#165000
1!
b00000000000000000000000000000100 0
b10001001101010111100110111101111 1
b11101101110010111010100110000111 '
b00000000000000000000000000001000 (
b1111 &
1%
1#
1$
#170000
0!
#175000
1!
1.
b1111 2
b00000000000000000000000000001000 0
b11101101110010111010100110000111 1
b11111111111111111111111111111111 ,
1-
1+
14
1)
0+
#180000
0!
#185000
1!
0-
04
0#
0$
0)
b00000000000000000000000000000000 ,
#190000
0!
#195000
1!
0.
b0000 2
b00000000000000000000000000000000 0
b00000000000000000000000000000000 1
b0000 &
0%
#200000
0!
#205000
1!
b00000000000000000000000000001000 0
b11101101110010111010100110000111 1
b01110110010101000011001000010000 '
b00000000000000000000000000001100 (
b1111 &
1%
1#
1$
#210000
0!
#215000
1!
1.
b1111 2
b00000000000000000000000000001100 0
b01110110010101000011001000010000 1
b11111111111111111111111111111111 ,
1-
1+
14
1)
0+
#220000
0!
#225000
1!
0-
04
0#
0$
0)
b00000000000000000000000000000000 ,
#230000
0!
#235000
1!
0.
b0000 2
b00000000000000000000000000000000 0
b00000000000000000000000000000000 1
b0000 &
0%
#240000
0!
#245000
1!
b00000000000000000000000000001100 0
b01110110010101000011001000010000 1
b00000000000000000000000000000001 '
b00000000000000000000000000100000 (
b1000 &
1%
1#
1$
#250000
0!
#255000
1!
1.
b1000 2
b00000000000000000000000000100000 0
b00000000000000000000000000000001 1
b11111111111111111111111111111111 ,
1-
1+
14
1)
0+
#260000
0!
#265000
1!
0-
04
0#
0$
0)
b00000000000000000000000000000000 ,
#270000
0!
#275000
1!
0.
b0000 2
b00000000000000000000000000000000 0
b00000000000000000000000000000000 1
b0000 &
0%
#280000
0!
#285000
1!
b00000000000000000000000000100000 0
b00000000000000000000000000000001 1
b00000000000000000000000000110100 (
b0001 &
1#
1$
#290000
0!
#295000
1!
b0001 2
b00000000000000000000000000110100 0
b11111111111111111111111111111111 ,
1-
1+
b00000000000000000000000000000001 3
14
1)
b00000000000000000000000000000001 ,
0+
#300000
0!
#305000
1!
0-
04
b11111111111111111111111111111111 3
0#
0$
0)
b00000000000000000000000000000000 ,
#310000
0!
#315000
1!
b0000 2
b00000000000000000000000000000000 0
b00000000000000000000000000000000 1
b0000 &
#320000
0!
#325000
1!
b00000000000000000000000000110100 0
b00000000000000000000000000000001 1
#330000
0!
#335000
1!
b0001 &
1#
1$
#340000
0!
#345000
1!
b0001 2
b11111111111111111111111111111111 ,
1-
1+
b00000000000000000000000000000000 3
14
1)
b00000000000000000000000000000000 ,
0+
#350000
0!
#355000
1!
0-
04
b11111111111111111111111111111111 3
0#
0$
0)
#360000
0!
#365000
1!
b0000 2
b00000000000000000000000000000000 0
b00000000000000000000000000000000 1
b0000 &
#370000
0!
#375000
1!
b00000000000000000000000000110100 0
b00000000000000000000000000000001 1
#380000
0!
#385000
1!
b01000000010000000100000001000000 '
b00000000000000000000000000010000 (
b1111 &
1%
1#
1$
#390000
0!
#395000
1!
1.
b1111 2
b00000000000000000000000000010000 0
b01000000010000000100000001000000 1
b11111111111111111111111111111111 ,
1-
1+
14
1)
0+
#400000
0!
#405000
1!
0-
04
0#
0$
0)
b00000000000000000000000000000000 ,
#410000
0!
#415000
1!
0.
b0000 2
b00000000000000000000000000000000 0
b00000000000000000000000000000000 1
b0000 &
0%
#420000
0!
#425000
1!
b00000000000000000000000000010000 0
b01000000010000000100000001000000 1
b00110000001100000011000000110000 '
b00000000000000000000000000010100 (
b1111 &
1%
1#
1$
#430000
0!
#435000
1!
1.
b1111 2
b00000000000000000000000000010100 0
b00110000001100000011000000110000 1
b11111111111111111111111111111111 ,
1-
1+
14
1)
0+
#440000
0!
#445000
1!
0-
04
0#
0$
0)
b00000000000000000000000000000000 ,
#450000
0!
#455000
1!
0.
b0000 2
b00000000000000000000000000000000 0
b00000000000000000000000000000000 1
b0000 &
0%
#460000
0!
#465000
1!
b00000000000000000000000000010100 0
b00110000001100000011000000110000 1
b00100000001000000010000000100000 '
b00000000000000000000000000011000 (
b1111 &
1%
1#
1$
#470000
0!
#475000
1!
1.
b1111 2
b00000000000000000000000000011000 0
b00100000001000000010000000100000 1
b11111111111111111111111111111111 ,
1-
1+
14
1)
0+
#480000
0!
#485000
1!
0-
04
0#
0$
0)
b00000000000000000000000000000000 ,
#490000
0!
#495000
1!
0.
b0000 2
b00000000000000000000000000000000 0
b00000000000000000000000000000000 1
b0000 &
0%
#500000
0!
#505000
1!
b00000000000000000000000000011000 0
b00100000001000000010000000100000 1
b00010000000100000001000000010000 '
b00000000000000000000000000011100 (
b1111 &
1%
1#
1$
#510000
0!
#515000
1!
1.
b1111 2
b00000000000000000000000000011100 0
b00010000000100000001000000010000 1
b11111111111111111111111111111111 ,
1-
1+
14
1)
0+
#520000
0!
#525000
1!
0-
04
0#
0$
0)
b00000000000000000000000000000000 ,
#530000
0!
#535000
1!
0.
b0000 2
b00000000000000000000000000000000 0
b00000000000000000000000000000000 1
b0000 &
0%
#540000
0!
#545000
1!
b00000000000000000000000000011100 0
b00010000000100000001000000010000 1
b00000000000000000000000000000001 '
b00000000000000000000000000100000 (
b0100 &
1%
1#
1$
#550000
0!
#555000
1!
1.
b0100 2
b00000000000000000000000000100000 0
b00000000000000000000000000000001 1
b11111111111111111111111111111111 ,
1-
1+
14
1)
0+
#560000
0!
#565000
1!
0-
04
0#
0$
0)
b00000000000000000000000000000000 ,
#570000
0!
#575000
1!
0.
b0000 2
b00000000000000000000000000000000 0
b00000000000000000000000000000000 1
b0000 &
0%
#580000
0!
#585000
1!
b00000000000000000000000000100000 0
b00000000000000000000000000000001 1
b00000000000000000000000000110100 (
b0001 &
1#
1$
#590000
0!
#595000
1!
b0001 2
b00000000000000000000000000110100 0
b11111111111111111111111111111111 ,
1-
1+
b00000000000000000000000000000001 3
14
1)
b00000000000000000000000000000001 ,
0+
#600000
0!
#605000
1!
0-
04
b11111111111111111111111111111111 3
0#
0$
0)
b00000000000000000000000000000000 ,
#610000
0!
#615000
1!
b0000 2
b00000000000000000000000000000000 0
b00000000000000000000000000000000 1
b0000 &
#620000
0!
#625000
1!
b00000000000000000000000000110100 0
b00000000000000000000000000000001 1
#630000
0!
#635000
1!
b0001 &
1#
1$
#640000
0!
#645000
1!
b0001 2
b11111111111111111111111111111111 ,
1-
1+
b00000000000000000000000000000001 3
14
1)
b00000000000000000000000000000001 ,
0+
#650000
0!
#655000
1!
0-
04
b11111111111111111111111111111111 3
0#
0$
0)
b00000000000000000000000000000000 ,
#660000
0!
#665000
1!
b0000 2
b00000000000000000000000000000000 0
b00000000000000000000000000000000 1
b0000 &
#670000
0!
#675000
1!
b00000000000000000000000000110100 0
b00000000000000000000000000000001 1
#680000
0!
#685000
1!
b0001 &
1#
1$
#690000
0!
#695000
1!
b0001 2
b11111111111111111111111111111111 ,
1-
1+
b00000000000000000000000000000001 3
14
1)
b00000000000000000000000000000001 ,
0+
#700000
0!
#705000
1!
0-
04
b11111111111111111111111111111111 3
0#
0$
0)
b00000000000000000000000000000000 ,
#710000
0!
#715000
1!
b0000 2
b00000000000000000000000000000000 0
b00000000000000000000000000000000 1
b0000 &
#720000
0!
#725000
1!
b00000000000000000000000000110100 0
b00000000000000000000000000000001 1
#730000
0!
#735000
1!
b0001 &
1#
1$
#740000
0!
#745000
1!
b0001 2
b11111111111111111111111111111111 ,
1-
1+
b00000000000000000000000000000001 3
14
1)
b00000000000000000000000000000001 ,
0+
#750000
0!
#755000
1!
0-
04
b11111111111111111111111111111111 3
0#
0$
0)
b00000000000000000000000000000000 ,
#760000
0!
#765000
1!
b0000 2
b00000000000000000000000000000000 0
b00000000000000000000000000000000 1
b0000 &
#770000
0!
#775000
1!
b00000000000000000000000000110100 0
b00000000000000000000000000000001 1
#780000
0!
#785000
1!
b0001 &
1#
1$
#790000
0!
#795000
1!
b0001 2
b11111111111111111111111111111111 ,
1-
1+
b00000000000000000000000000000001 3
14
1)
b00000000000000000000000000000001 ,
0+
#800000
0!
#805000
1!
0-
04
b11111111111111111111111111111111 3
0#
0$
0)
b00000000000000000000000000000000 ,
#810000
0!
#815000
1!
b0000 2
b00000000000000000000000000000000 0
b00000000000000000000000000000000 1
b0000 &
#820000
0!
#825000
1!
b00000000000000000000000000110100 0
b00000000000000000000000000000001 1
#830000
0!
#835000
1!
b0001 &
1#
1$
#840000
0!
#845000
1!
b0001 2
b11111111111111111111111111111111 ,
1-
1+
b00000000000000000000000000000000 3
14
1)
b00000000000000000000000000000000 ,
0+
#850000
0!
#855000
1!
0-
04
b11111111111111111111111111111111 3
0#
0$
0)
#860000
0!
#865000
1!
b0000 2
b00000000000000000000000000000000 0
b00000000000000000000000000000000 1
b0000 &
#870000
0!
#875000
1!
b00000000000000000000000000110100 0
b00000000000000000000000000000001 1
#880000
0!
#885000
1!
b00000000000000000000000000100100 (
b1111 &
1#
1$
#890000
0!
#895000
1!
b1111 2
b00000000000000000000000000100100 0
b11111111111111111111111111111111 ,
1-
1+
b00010011111011001101010000000000 3
14
1)
b00010011111011001101010000000000 ,
0+
b00010011111011001101010011010010 3
b00010011111011001101010011010010 ,
#900000
0!
#905000
1!
0-
04
b11111111111111111111111111111111 3
0#
0$
0)
b00000000000000000000000000000000 ,
#910000
0!
#915000
1!
b0000 2
b00000000000000000000000000000000 0
b00000000000000000000000000000000 1
b0000 &
#920000
0!
#925000
1!
b00000000000000000000000000100100 0
b00000000000000000000000000000001 1
#930000
0!
#935000
1!
b00000000000000000000000000101000 (
b1111 &
1#
1$
#940000
0!
#945000
1!
b1111 2
b00000000000000000000000000101000 0
b11111111111111111111111111111111 ,
1-
1+
b00010011111011001101010011010010 3
14
1)
b00010011111011001101010011010010 ,
0+
b10001010000100000011110111101100 3
b10001010000100000011110111101100 ,
#950000
0!
#955000
1!
0-
04
b11111111111111111111111111111111 3
0#
0$
0)
b00000000000000000000000000000000 ,
#960000
0!
#965000
1!
b0000 2
b00000000000000000000000000000000 0
b00000000000000000000000000000000 1
b0000 &
#970000
0!
#975000
1!
b00000000000000000000000000101000 0
b00000000000000000000000000000001 1
#980000
0!
#985000
1!
b00000000000000000000000000101100 (
b1111 &
1#
1$
#990000
0!
#995000
1!
b1111 2
b00000000000000000000000000101100 0
b11111111111111111111111111111111 ,
1-
1+
b10001010000100000011110111101100 3
14
1)
b10001010000100000011110111101100 ,
0+
b00100011000001110011111101111110 3
b00100011000001110011111101111110 ,
#1000000
0!
#1005000
1!
0-
04
b11111111111111111111111111111111 3
0#
0$
0)
b00000000000000000000000000000000 ,
#1010000
0!
#1015000
1!
b0000 2
b00000000000000000000000000000000 0
b00000000000000000000000000000000 1
b0000 &
#1020000
0!
#1025000
1!
b00000000000000000000000000101100 0
b00000000000000000000000000000001 1
#1030000
0!
#1035000
1!
b00000000000000000000000000110000 (
b1111 &
1#
1$
#1040000
0!
#1045000
1!
b1111 2
b00000000000000000000000000110000 0
b11111111111111111111111111111111 ,
1-
1+
b00100011000001110011111101111110 3
14
1)
b00100011000001110011111101111110 ,
0+
b01010100010000111010101010000011 3
b01010100010000111010101010000011 ,
#1050000
0!
#1055000
1!
0-
04
b11111111111111111111111111111111 3
0#
0$
0)
b00000000000000000000000000000000 ,
#1060000
0!
#1065000
1!
b0000 2
b00000000000000000000000000000000 0
b00000000000000000000000000000000 1
b0000 &
#1070000
0!
#1075000
1!
b00000000000000000000000000110000 0
b00000000000000000000000000000001 1
#1080000
0!
#1085000
1!
b00000000000000000000000011010010 '
b00000000000000000000000001100000 (
#1090000
0!
#1095000
1!
b00000000000000000000000001100000 0
b00000000000000000000000011010010 1
#1100000
0!
#1105000
1!
#1110000
0!
#1115000
1!
#1120000
0!
#1125000
1!
#1130000
0!
#1135000
1!
#1140000
0!
#1145000
1!
#1150000
0!
#1155000
1!
#1160000
0!
#1165000
1!
#1170000
0!
#1175000
1!
#1180000
0!
#1185000
1!
b00000000000000000000000000000000 '
b00000000000000000000000000000000 (
#1190000
0!
#1195000
1!
b00000000000000000000000000000000 0
b00000000000000000000000000000000 1
b00000000000000000000000011010010 '
b00000000000000000000000001100000 (
#1200000
0!
#1205000
1!
b00000000000000000000000001100000 0
b00000000000000000000000011010010 1
b00000000000000000000000011010100 '
#1210000
0!
#1215000
1!
b00000000000000000000000011010100 1
#1220000
0!
#1225000
1!
#1230000
0!
#1235000
1!
#1240000
0!
#1245000
1!
#1250000
0!
#1255000
1!
#1260000
0!
#1265000
1!
#1270000
0!
#1275000
1!
#1280000
0!
#1285000
1!
#1290000
0!
#1295000
1!
#1300000
0!
#1305000
1!
b00000000000000000000000000000000 '
b00000000000000000000000000000000 (
#1310000
0!
#1315000
1!
b00000000000000000000000000000000 0
b00000000000000000000000000000000 1
b00000000000000000000000011010100 '
b00000000000000000000000001100000 (
#1320000
0!
#1325000
1!
b00000000000000000000000001100000 0
b00000000000000000000000011010100 1
b00000000000000000000000011101100 '
#1330000
0!
#1335000
1!
b00000000000000000000000011101100 1
#1340000
0!
#1345000
1!
#1350000
0!
#1355000
1!
#1360000
0!
#1365000
1!
#1370000
0!
#1375000
1!
#1380000
0!
#1385000
1!
#1390000
0!
#1395000
1!
#1400000
0!
#1405000
1!
#1410000
0!
#1415000
1!
#1420000
0!
#1425000
1!
b00000000000000000000000000000000 '
b00000000000000000000000000000000 (
#1430000
0!
#1435000
1!
b00000000000000000000000000000000 0
b00000000000000000000000000000000 1
b00000000000000000000000011101100 '
b00000000000000000000000001100000 (
#1440000
0!
#1445000
1!
b00000000000000000000000001100000 0
b00000000000000000000000011101100 1
b00000000000000000000000000010011 '
#1450000
0!
#1455000
1!
b00000000000000000000000000010011 1
#1460000
0!
#1465000
1!
#1470000
0!
#1475000
1!
#1480000
0!
#1485000
1!
#1490000
0!
#1495000
1!
#1500000
0!
#1505000
1!
#1510000
0!
#1515000
1!
#1520000
0!
#1525000
1!
#1530000
0!
#1535000
1!
#1540000
0!
#1545000
1!
b00000000000000000000000000000000 '
b00000000000000000000000000000000 (
#1550000
0!
#1555000
1!
b00000000000000000000000000000000 0
b00000000000000000000000000000000 1
b00000000000000000000000000010011 '
b00000000000000000000000001100000 (
#1560000
0!
#1565000
1!
b00000000000000000000000001100000 0
b00000000000000000000000000010011 1
b00000000000000000000000011101100 '
#1570000
0!
#1575000
1!
b00000000000000000000000011101100 1
#1580000
0!
#1585000
1!
#1590000
0!
#1595000
1!
#1600000
0!
#1605000
1!
#1610000
0!
#1615000
1!
#1620000
0!
#1625000
1!
#1630000
0!
#1635000
1!
#1640000
0!
#1645000
1!
#1650000
0!
#1655000
1!
#1660000
0!
#1665000
1!
b00000000000000000000000000000000 '
b00000000000000000000000000000000 (
#1670000
0!
#1675000
1!
b00000000000000000000000000000000 0
b00000000000000000000000000000000 1
b00000000000000000000000011101100 '
b00000000000000000000000001100000 (
#1680000
0!
#1685000
1!
b00000000000000000000000001100000 0
b00000000000000000000000011101100 1
b00000000000000000000000000111101 '
#1690000
0!
#1695000
1!
b00000000000000000000000000111101 1
#1700000
0!
#1705000
1!
#1710000
0!
#1715000
1!
#1720000
0!
#1725000
1!
#1730000
0!
#1735000
1!
#1740000
0!
#1745000
1!
#1750000
0!
#1755000
1!
#1760000
0!
#1765000
1!
#1770000
0!
#1775000
1!
#1780000
0!
#1785000
1!
b00000000000000000000000000000000 '
b00000000000000000000000000000000 (
#1790000
0!
#1795000
1!
b00000000000000000000000000000000 0
b00000000000000000000000000000000 1
b00000000000000000000000000111101 '
b00000000000000000000000001100000 (
#1800000
0!
#1805000
1!
b00000000000000000000000001100000 0
b00000000000000000000000000111101 1
b00000000000000000000000000010000 '
#1810000
0!
#1815000
1!
b00000000000000000000000000010000 1
#1820000
0!
#1825000
1!
#1830000
0!
#1835000
1!
#1840000
0!
#1845000
1!
#1850000
0!
#1855000
1!
#1860000
0!
#1865000
1!
#1870000
0!
#1875000
1!
#1880000
0!
#1885000
1!
#1890000
0!
#1895000
1!
#1900000
0!
#1905000
1!
b00000000000000000000000000000000 '
b00000000000000000000000000000000 (
#1910000
0!
#1915000
1!
b00000000000000000000000000000000 0
b00000000000000000000000000000000 1
b00000000000000000000000000010000 '
b00000000000000000000000001100000 (
#1920000
0!
#1925000
1!
b00000000000000000000000001100000 0
b00000000000000000000000000010000 1
b00000000000000000000000010001010 '
#1930000
0!
#1935000
1!
b00000000000000000000000010001010 1
#1940000
0!
#1945000
1!
#1950000
0!
#1955000
1!
#1960000
0!
#1965000
1!
#1970000
0!
#1975000
1!
#1980000
0!
#1985000
1!
#1990000
0!
#1995000
1!
#2000000
0!
#2005000
1!
#2010000
0!
#2015000
1!
#2020000
0!
#2025000
1!
b00000000000000000000000000000000 '
b00000000000000000000000000000000 (
#2030000
0!
#2035000
1!
b00000000000000000000000000000000 0
b00000000000000000000000000000000 1
b00000000000000000000000010001010 '
b00000000000000000000000001100000 (
#2040000
0!
#2045000
1!
b00000000000000000000000001100000 0
b00000000000000000000000010001010 1
b00000000000000000000000001111110 '
#2050000
0!
#2055000
1!
b00000000000000000000000001111110 1
#2060000
0!
#2065000
1!
#2070000
0!
#2075000
1!
#2080000
0!
#2085000
1!
#2090000
0!
#2095000
1!
#2100000
0!
#2105000
1!
#2110000
0!
#2115000
1!
#2120000
0!
#2125000
1!
#2130000
0!
#2135000
1!
#2140000
0!
#2145000
1!
b00000000000000000000000000000000 '
b00000000000000000000000000000000 (
#2150000
0!
#2155000
1!
b00000000000000000000000000000000 0
b00000000000000000000000000000000 1
b00000000000000000000000001111110 '
b00000000000000000000000001100000 (
#2160000
0!
#2165000
1!
b00000000000000000000000001100000 0
b00000000000000000000000001111110 1
b00000000000000000000000000111111 '
#2170000
0!
#2175000
1!
b00000000000000000000000000111111 1
#2180000
0!
#2185000
1!
#2190000
0!
#2195000
1!
#2200000
0!
#2205000
1!
#2210000
0!
#2215000
1!
#2220000
0!
#2225000
1!
#2230000
0!
#2235000
1!
#2240000
0!
#2245000
1!
#2250000
0!
#2255000
1!
#2260000
0!
#2265000
1!
b00000000000000000000000000000000 '
b00000000000000000000000000000000 (
#2270000
0!
#2275000
1!
b00000000000000000000000000000000 0
b00000000000000000000000000000000 1
b00000000000000000000000000111111 '
b00000000000000000000000001100000 (
#2280000
0!
#2285000
1!
b00000000000000000000000001100000 0
b00000000000000000000000000111111 1
b00000000000000000000000000000111 '
#2290000
0!
#2295000
1!
b00000000000000000000000000000111 1
#2300000
0!
#2305000
1!
#2310000
0!
#2315000
1!
#2320000
0!
#2325000
1!
#2330000
0!
#2335000
1!
#2340000
0!
#2345000
1!
#2350000
0!
#2355000
1!
#2360000
0!
#2365000
1!
#2370000
0!
#2375000
1!
#2380000
0!
#2385000
1!
b00000000000000000000000000000000 '
b00000000000000000000000000000000 (
#2390000
0!
#2395000
1!
b00000000000000000000000000000000 0
b00000000000000000000000000000000 1
b00000000000000000000000000000111 '
b00000000000000000000000001100000 (
#2400000
0!
#2405000
1!
b00000000000000000000000001100000 0
b00000000000000000000000000000111 1
b00000000000000000000000000100011 '
#2410000
0!
#2415000
1!
b00000000000000000000000000100011 1
#2420000
0!
#2425000
1!
#2430000
0!
#2435000
1!
#2440000
0!
#2445000
1!
#2450000
0!
#2455000
1!
#2460000
0!
#2465000
1!
#2470000
0!
#2475000
1!
#2480000
0!
#2485000
1!
#2490000
0!
#2495000
1!
#2500000
0!
#2505000
1!
b00000000000000000000000000000000 '
b00000000000000000000000000000000 (
#2510000
0!
#2515000
1!
b00000000000000000000000000000000 0
b00000000000000000000000000000000 1
b00000000000000000000000000100011 '
b00000000000000000000000001100000 (
#2520000
0!
#2525000
1!
b00000000000000000000000001100000 0
b00000000000000000000000000100011 1
b00000000000000000000000010000011 '
#2530000
0!
#2535000
1!
b00000000000000000000000010000011 1
#2540000
0!
#2545000
1!
#2550000
0!
#2555000
1!
#2560000
0!
#2565000
1!
#2570000
0!
#2575000
1!
#2580000
0!
#2585000
1!
#2590000
0!
#2595000
1!
#2600000
0!
#2605000
1!
#2610000
0!
#2615000
1!
#2620000
0!
#2625000
1!
b00000000000000000000000000000000 '
b00000000000000000000000000000000 (
#2630000
0!
#2635000
1!
b00000000000000000000000000000000 0
b00000000000000000000000000000000 1
b00000000000000000000000010000011 '
b00000000000000000000000001100000 (
#2640000
0!
#2645000
1!
b00000000000000000000000001100000 0
b00000000000000000000000010000011 1
b00000000000000000000000010101010 '
#2650000
0!
#2655000
1!
b00000000000000000000000010101010 1
#2660000
0!
#2665000
1!
#2670000
0!
#2675000
1!
#2680000
0!
#2685000
1!
#2690000
0!
#2695000
1!
#2700000
0!
#2705000
1!
#2710000
0!
#2715000
1!
#2720000
0!
#2725000
1!
#2730000
0!
#2735000
1!
#2740000
0!
#2745000
1!
b00000000000000000000000000000000 '
b00000000000000000000000000000000 (
#2750000
0!
#2755000
1!
b00000000000000000000000000000000 0
b00000000000000000000000000000000 1
b00000000000000000000000010101010 '
b00000000000000000000000001100000 (
#2760000
0!
#2765000
1!
b00000000000000000000000001100000 0
b00000000000000000000000010101010 1
b00000000000000000000000001000011 '
#2770000
0!
#2775000
1!
b00000000000000000000000001000011 1
#2780000
0!
#2785000
1!
#2790000
0!
#2795000
1!
#2800000
0!
#2805000
1!
#2810000
0!
#2815000
1!
#2820000
0!
#2825000
1!
#2830000
0!
#2835000
1!
#2840000
0!
#2845000
1!
#2850000
0!
#2855000
1!
#2860000
0!
#2865000
1!
b00000000000000000000000000000000 '
b00000000000000000000000000000000 (
#2870000
0!
#2875000
1!
b00000000000000000000000000000000 0
b00000000000000000000000000000000 1
b00000000000000000000000001000011 '
b00000000000000000000000001100000 (
#2880000
0!
#2885000
1!
b00000000000000000000000001100000 0
b00000000000000000000000001000011 1
b00000000000000000000000001010100 '
#2890000
0!
#2895000
1!
b00000000000000000000000001010100 1
#2900000
0!
#2905000
1!
#2910000
0!
#2915000
1!
#2920000
0!
#2925000
1!
#2930000
0!
#2935000
1!
#2940000
0!
#2945000
1!
#2950000
0!
#2955000
1!
#2960000
0!
#2965000
1!
#2970000
0!
#2975000
1!
#2980000
0!
#2985000
1!
b00000000000000000000000000000000 '
b00000000000000000000000000000000 (
#2990000
0!
#2995000
1!
b00000000000000000000000000000000 0
b00000000000000000000000000000000 1
b00000000000000000000000001010100 '
b00000000000000000000000001100000 (
#3000000
0!
#3005000
1!
b00000000000000000000000001100000 0
b00000000000000000000000001010100 1
b00010011111011001101010011010010 '
b00000000000000000000000000010000 (
b1111 &
1%
1#
1$
#3010000
0!
#3015000
1!
1.
b1111 2
b00000000000000000000000000010000 0
b00010011111011001101010011010010 1
b11111111111111111111111111111111 ,
1-
1+
14
1)
0+
#3020000
0!
#3025000
1!
0-
04
0#
0$
0)
b00000000000000000000000000000000 ,
#3030000
0!
#3035000
1!
0.
b0000 2
b00000000000000000000000000000000 0
b00000000000000000000000000000000 1
b0000 &
0%
#3040000
0!
#3045000
1!
b00000000000000000000000000010000 0
b00010011111011001101010011010010 1
b10001010000100000011110111101100 '
b00000000000000000000000000010100 (
b1111 &
1%
1#
1$
#3050000
0!
#3055000
1!
1.
b1111 2
b00000000000000000000000000010100 0
b10001010000100000011110111101100 1
b11111111111111111111111111111111 ,
1-
1+
14
1)
0+
#3060000
0!
#3065000
1!
0-
04
0#
0$
0)
b00000000000000000000000000000000 ,
#3070000
0!
#3075000
1!
0.
b0000 2
b00000000000000000000000000000000 0
b00000000000000000000000000000000 1
b0000 &
0%
#3080000
0!
#3085000
1!
b00000000000000000000000000010100 0
b10001010000100000011110111101100 1
b00100011000001110011111101111110 '
b00000000000000000000000000011000 (
b1111 &
1%
1#
1$
#3090000
0!
#3095000
1!
1.
b1111 2
b00000000000000000000000000011000 0
b00100011000001110011111101111110 1
b11111111111111111111111111111111 ,
1-
1+
14
1)
0+
#3100000
0!
#3105000
1!
0-
04
0#
0$
0)
b00000000000000000000000000000000 ,
#3110000
0!
#3115000
1!
0.
b0000 2
b00000000000000000000000000000000 0
b00000000000000000000000000000000 1
b0000 &
0%
#3120000
0!
#3125000
1!
b00000000000000000000000000011000 0
b00100011000001110011111101111110 1
b01010100010000111010101010000011 '
b00000000000000000000000000011100 (
b1111 &
1%
1#
1$
#3130000
0!
#3135000
1!
1.
b1111 2
b00000000000000000000000000011100 0
b01010100010000111010101010000011 1
b11111111111111111111111111111111 ,
1-
1+
14
1)
0+
#3140000
0!
#3145000
1!
0-
04
0#
0$
0)
b00000000000000000000000000000000 ,
#3150000
0!
#3155000
1!
0.
b0000 2
b00000000000000000000000000000000 0
b00000000000000000000000000000000 1
b0000 &
0%
#3160000
0!
#3165000
1!
b00000000000000000000000000011100 0
b01010100010000111010101010000011 1
b00000000000000000000000000000001 '
b00000000000000000000000000100000 (
b0110 &
1%
1#
1$
#3170000
0!
#3175000
1!
1.
b0110 2
b00000000000000000000000000100000 0
b00000000000000000000000000000001 1
b11111111111111111111111111111111 ,
1-
1+
14
1)
0+
#3180000
0!
#3185000
1!
0-
04
0#
0$
0)
b00000000000000000000000000000000 ,
#3190000
0!
#3195000
1!
0.
b0000 2
b00000000000000000000000000000000 0
b00000000000000000000000000000000 1
b0000 &
0%
#3200000
0!
#3205000
1!
b00000000000000000000000000100000 0
b00000000000000000000000000000001 1
b00000000000000000000000000110100 (
b0001 &
1#
1$
#3210000
0!
#3215000
1!
b0001 2
b00000000000000000000000000110100 0
b11111111111111111111111111111111 ,
1-
1+
b00000000000000000000000000000001 3
14
1)
b00000000000000000000000000000001 ,
0+
#3220000
0!
#3225000
1!
0-
04
b11111111111111111111111111111111 3
0#
0$
0)
b00000000000000000000000000000000 ,
#3230000
0!
#3235000
1!
b0000 2
b00000000000000000000000000000000 0
b00000000000000000000000000000000 1
b0000 &
#3240000
0!
#3245000
1!
b00000000000000000000000000110100 0
b00000000000000000000000000000001 1
#3250000
0!
#3255000
1!
b0001 &
1#
1$
#3260000
0!
#3265000
1!
b0001 2
b11111111111111111111111111111111 ,
1-
1+
b00000000000000000000000000000001 3
14
1)
b00000000000000000000000000000001 ,
0+
#3270000
0!
#3275000
1!
0-
04
b11111111111111111111111111111111 3
0#
0$
0)
b00000000000000000000000000000000 ,
#3280000
0!
#3285000
1!
b0000 2
b00000000000000000000000000000000 0
b00000000000000000000000000000000 1
b0000 &
#3290000
0!
#3295000
1!
b00000000000000000000000000110100 0
b00000000000000000000000000000001 1
#3300000
0!
#3305000
1!
b0001 &
1#
1$
#3310000
0!
