mining/a-team/tests/camellia/camellia.vcd
$date
	Tue Jan 26 16:05:37 2021
$end
$version
	ModelSim Version 2019.4
$end
$timescale
	1ps
$end

$scope module sim1 $end

$scope module p $end

$scope module slave_0 $end

$scope module slave_interface $end
$var wire 1 ! wb_clk $end
$upscope $end

$scope module camallia_u $end
$var wire 1 " RSTn $end
$var wire 1 # EN $end
$var wire 1 $ EncDec $end
$var wire 1 % Drdy $end
$var wire 1 & Krdy $end
$var reg 1 ' BSY $end
$var reg 1 ( Kvld $end
$var reg 1 ) Dvld $end
$upscope $end
$upscope $end
$upscope $end
$upscope $end
$enddefinitions $end
#0
$dumpvars
x'
x(
x)
0%
0#
0$
0&
0"
0!
$end
#5000
1!
0'
0(
0)
#10000
0!
#15000
1!
#20000
0!
1"
#25000
1!
#30000
0!
#35000
1!
#40000
0!
#45000
1!
#50000
0!
#55000
1!
#60000
0!
#65000
1!
1#
#70000
0!
#75000
1!
#80000
0!
#85000
1!
#90000
0!
#95000
1!
#100000
0!
#105000
1!
#110000
0!
#115000
1!
#120000
0!
#125000
1!
#130000
0!
#135000
1!
#140000
0!
#145000
1!
#150000
0!
#155000
1!
#160000
0!
#165000
1!
#170000
0!
#175000
1!
#180000
0!
#185000
1!
#190000
0!
#195000
1!
#200000
0!
#205000
1!
#210000
0!
#215000
1!
#220000
0!
#225000
1!
#230000
0!
#235000
1!
#240000
0!
#245000
1!
#250000
0!
#255000
1!
#260000
0!
#265000
1!
1&
#270000
0!
#275000
1!
1'
#280000
0!
#285000
1!
0&
#290000
0!
#295000
1!
#300000
0!
#305000
1!
#310000
0!
#315000
1!
#320000
0!
#325000
1!
#330000
0!
#335000
1!
0'
1(
#340000
0!
#345000
1!
0(
