mining/a-team/tests/bl_slave_1/bl_slave.vcd
$date
	Wed Apr 17 16:47:31 2019
$end

$version
	Synopsys VCS version N-2017.12_Full64
$end

$timescale
	1ps
$end

$comment Csum: 1 1787c3c269a6193d $end


$scope module sim1 $end

$scope module p $end

$scope module slave_1 $end

$scope module slave_interface $end
$var reg 1 ! wb_clk $end
$var reg 1 " wb_rst $end
$var reg 1 # wb_cyc $end
$var reg 1 $ wb_stb $end
$var reg 1 % wb_we $end
$var reg 4 & wb_sel [3:0] $end
$var reg 32 ' wb_dat_i [31:0] $end
$var reg 32 ( wb_adr [31:0] $end
$var reg 1 ) wb_ack $end
$var reg 1 * wb_err $end
$var reg 1 + wb_stall $end
$var reg 32 , wb_dat_o [31:0] $end
$var reg 1 - request $end
$var reg 1 . write $end
$var reg 1 / reset $end
$var reg 32 0 address [31:0] $end
$var reg 32 1 data_from_bus [31:0] $end
$var reg 4 2 byte_sel [3:0] $end
$var reg 32 3 data_to_bus [31:0] $end
$var reg 1 4 done $end
$var reg 1 5 err $end
$upscope $end

$upscope $end

$upscope $end

$upscope $end

$enddefinitions $end

#0
$dumpvars
04
05
0-
1/
0)
0!
0#
0*
1"
0+
0$
x%
x.
bxxxxxxxxxxxxxxxxxxxxxxxxxxxxxxxx 0
bxxxx 2
bxxxxxxxxxxxxxxxxxxxxxxxxxxxxxxxx 1
b00000000000000000000000000000000 3
bxxxxxxxxxxxxxxxxxxxxxxxxxxxxxxxx (
bxxxxxxxxxxxxxxxxxxxxxxxxxxxxxxxx '
b00000000000000000000000000000000 ,
bxxxx &
$end
#5000
1!
0.
b0000 2
b00000000000000000000000000000000 0
b00000000000000000000000000000000 1
b00000000000000000000000000000000 '
b00000000000000000000000000000000 (
b0000 &
0%
#10000
0!
#15000
1!
#20000
0!
0"
0/
#25000
1!
#30000
0!
#35000
1!
#40000
0!
#45000
1!
b00000000000000000000000000000001 '
b00000000000000000000000000100000 (
#50000
0!
#55000
1!
b00000000000000000000000000100000 0
b00000000000000000000000000000001 1
#60000
0!
#65000
1!
#70000
0!
#75000
1!
#80000
0!
#85000
1!
b00010001001000110100010101100111 '
b00000000000000000000000000000000 (
#90000
0!
#95000
1!
b00000000000000000000000000000000 0
b00010001001000110100010101100111 1
#100000
0!
#105000
1!
#110000
0!
#115000
1!
#120000
0!
#125000
1!
b10001001101010111100110111101111 '
b00000000000000000000000000000100 (
#130000
0!
#135000
1!
b00000000000000000000000000000100 0
b10001001101010111100110111101111 1
#140000
0!
#145000
1!
#150000
0!
#155000
1!
#160000
0!
#165000
1!
b11101101110010111010100110000111 '
b00000000000000000000000000001000 (
#170000
0!
#175000
1!
b00000000000000000000000000001000 0
b11101101110010111010100110000111 1
#180000
0!
#185000
1!
#190000
0!
#195000
1!
#200000
0!
#205000
1!
b01110110010101000011001000010000 '
b00000000000000000000000000001100 (
#210000
0!
#215000
1!
b00000000000000000000000000001100 0
b01110110010101000011001000010000 1
#220000
0!
#225000
1!
#230000
0!
#235000
1!
#240000
0!
#245000
1!
b00000000000000000000000000000001 '
b00000000000000000000000000100000 (
#250000
0!
#255000
1!
b00000000000000000000000000100000 0
b00000000000000000000000000000001 1
#260000
0!
#265000
1!
#270000
0!
#275000
1!
#280000
0!
#285000
1!
b00000000000000000000000000110100 (
#290000
0!
#295000
1!
b00000000000000000000000000110100 0
#300000
0!
#305000
1!
#310000
0!
#315000
1!
#320000
0!
#325000
1!
#330000
0!
#335000
1!
#340000
0!
#345000
1!
#350000
0!
#355000
1!
#360000
0!
#365000
1!
#370000
0!
#375000
1!
#380000
0!
#385000
1!
b01000000010000000100000001000000 '
b00000000000000000000000000010000 (
#390000
0!
#395000
1!
b00000000000000000000000000010000 0
b01000000010000000100000001000000 1
#400000
0!
#405000
1!
#410000
0!
#415000
1!
#420000
0!
#425000
1!
b00110000001100000011000000110000 '
b00000000000000000000000000010100 (
#430000
0!
#435000
1!
b00000000000000000000000000010100 0
b00110000001100000011000000110000 1
#440000
0!
#445000
1!
#450000
0!
#455000
1!
#460000
0!
#465000
1!
b00100000001000000010000000100000 '
b00000000000000000000000000011000 (
#470000
0!
#475000
1!
b00000000000000000000000000011000 0
b00100000001000000010000000100000 1
#480000
0!
#485000
1!
#490000
0!
#495000
1!
#500000
0!
#505000
1!
b00010000000100000001000000010000 '
b00000000000000000000000000011100 (
#510000
0!
#515000
1!
b00000000000000000000000000011100 0
b00010000000100000001000000010000 1
#520000
0!
#525000
1!
#530000
0!
#535000
1!
#540000
0!
#545000
1!
b00000000000000000000000000000001 '
b00000000000000000000000000100000 (
#550000
0!
#555000
1!
b00000000000000000000000000100000 0
b00000000000000000000000000000001 1
#560000
0!
#565000
1!
#570000
0!
#575000
1!
#580000
0!
#585000
1!
b00000000000000000000000000110100 (
#590000
0!
#595000
1!
b00000000000000000000000000110100 0
